%YAML 1.1
%TAG !u! tag:unity3d.com,2011:
--- !u!54 &8844908996076146702
Rigidbody:
  m_ObjectHideFlags: 0
  m_CorrespondingSourceObject: {fileID: 0}
  m_PrefabInstance: {fileID: 0}
  m_PrefabAsset: {fileID: 0}
  m_GameObject: {fileID: 8201688375064795434}
  serializedVersion: 2
  m_Mass: 1
  m_Drag: 0
  m_AngularDrag: 0.05
  m_UseGravity: 1
  m_IsKinematic: 0
  m_Interpolate: 0
  m_Constraints: 0
  m_CollisionDetection: 0
--- !u!65 &7409242774253759113
BoxCollider:
  m_ObjectHideFlags: 0
  m_CorrespondingSourceObject: {fileID: 0}
  m_PrefabInstance: {fileID: 0}
  m_PrefabAsset: {fileID: 0}
  m_GameObject: {fileID: 8201688375064795434}
  m_Material: {fileID: 0}
  m_IsTrigger: 0
  m_Enabled: 1
  serializedVersion: 2
  m_Size: {x: 0.018662576, y: 0.0151316235, z: 0.0093308445}
  m_Center: {x: -0.000030280557, y: -0.0000118927555, z: 0.00059467484}
--- !u!1001 &9012593246424867963
PrefabInstance:
  m_ObjectHideFlags: 0
  serializedVersion: 2
  m_Modification:
    m_TransformParent: {fileID: 0}
    m_Modifications:
    - target: {fileID: -8679921383154817045, guid: 347047764a1ce2a4d9649affbad8103e,
        type: 3}
      propertyPath: m_RootOrder
      value: 0
      objectReference: {fileID: 0}
    - target: {fileID: -8679921383154817045, guid: 347047764a1ce2a4d9649affbad8103e,
        type: 3}
      propertyPath: m_LocalPosition.x
      value: 0
      objectReference: {fileID: 0}
    - target: {fileID: -8679921383154817045, guid: 347047764a1ce2a4d9649affbad8103e,
        type: 3}
      propertyPath: m_LocalPosition.y
      value: 0
      objectReference: {fileID: 0}
    - target: {fileID: -8679921383154817045, guid: 347047764a1ce2a4d9649affbad8103e,
        type: 3}
      propertyPath: m_LocalPosition.z
      value: 0
      objectReference: {fileID: 0}
    - target: {fileID: -8679921383154817045, guid: 347047764a1ce2a4d9649affbad8103e,
        type: 3}
      propertyPath: m_LocalRotation.w
      value: 0.5000001
      objectReference: {fileID: 0}
    - target: {fileID: -8679921383154817045, guid: 347047764a1ce2a4d9649affbad8103e,
        type: 3}
      propertyPath: m_LocalRotation.x
      value: -0.5000001
      objectReference: {fileID: 0}
    - target: {fileID: -8679921383154817045, guid: 347047764a1ce2a4d9649affbad8103e,
        type: 3}
      propertyPath: m_LocalRotation.y
      value: -0.49999988
      objectReference: {fileID: 0}
    - target: {fileID: -8679921383154817045, guid: 347047764a1ce2a4d9649affbad8103e,
        type: 3}
      propertyPath: m_LocalRotation.z
      value: -0.4999999
      objectReference: {fileID: 0}
    - target: {fileID: -8679921383154817045, guid: 347047764a1ce2a4d9649affbad8103e,
        type: 3}
      propertyPath: m_LocalEulerAnglesHint.x
      value: 0
      objectReference: {fileID: 0}
    - target: {fileID: -8679921383154817045, guid: 347047764a1ce2a4d9649affbad8103e,
        type: 3}
      propertyPath: m_LocalEulerAnglesHint.y
      value: 0
      objectReference: {fileID: 0}
    - target: {fileID: -8679921383154817045, guid: 347047764a1ce2a4d9649affbad8103e,
        type: 3}
      propertyPath: m_LocalEulerAnglesHint.z
      value: 0
      objectReference: {fileID: 0}
    - target: {fileID: 919132149155446097, guid: 347047764a1ce2a4d9649affbad8103e,
        type: 3}
      propertyPath: m_Name
      value: Crate_08 Variant
      objectReference: {fileID: 0}
    - target: {fileID: 919132149155446097, guid: 347047764a1ce2a4d9649affbad8103e,
        type: 3}
      propertyPath: m_TagString
      value: Obstacle
      objectReference: {fileID: 0}
    m_RemovedComponents: []
  m_SourcePrefab: {fileID: 100100000, guid: 347047764a1ce2a4d9649affbad8103e, type: 3}
--- !u!1 &8201688375064795434 stripped
GameObject:
  m_CorrespondingSourceObject: {fileID: 919132149155446097, guid: 347047764a1ce2a4d9649affbad8103e,
    type: 3}
  m_PrefabInstance: {fileID: 9012593246424867963}
  m_PrefabAsset: {fileID: 0}
