%YAML 1.1
%TAG !u! tag:unity3d.com,2011:
--- !u!54 &4146653565818279344
Rigidbody:
  m_ObjectHideFlags: 0
  m_CorrespondingSourceObject: {fileID: 0}
  m_PrefabInstance: {fileID: 0}
  m_PrefabAsset: {fileID: 0}
  m_GameObject: {fileID: 6645054347011322692}
  serializedVersion: 2
  m_Mass: 1
  m_Drag: 0
  m_AngularDrag: 0.05
  m_UseGravity: 1
  m_IsKinematic: 0
  m_Interpolate: 0
  m_Constraints: 0
  m_CollisionDetection: 0
--- !u!65 &6933525179630516576
BoxCollider:
  m_ObjectHideFlags: 0
  m_CorrespondingSourceObject: {fileID: 0}
  m_PrefabInstance: {fileID: 0}
  m_PrefabAsset: {fileID: 0}
  m_GameObject: {fileID: 6645054347011322692}
  m_Material: {fileID: 0}
  m_IsTrigger: 0
  m_Enabled: 1
  serializedVersion: 2
  m_Size: {x: 0.016171537, y: 0.030216586, z: 0.010339976}
  m_Center: {x: 0.000011692755, y: 0.00002233451, z: 0.000029735265}
--- !u!1001 &5834009149541404181
PrefabInstance:
  m_ObjectHideFlags: 0
  serializedVersion: 2
  m_Modification:
    m_TransformParent: {fileID: 0}
    m_Modifications:
    - target: {fileID: -8679921383154817045, guid: dc95bb58731b1284d8bd81c537400680,
        type: 3}
      propertyPath: m_RootOrder
      value: 0
      objectReference: {fileID: 0}
    - target: {fileID: -8679921383154817045, guid: dc95bb58731b1284d8bd81c537400680,
        type: 3}
      propertyPath: m_LocalPosition.x
      value: 0
      objectReference: {fileID: 0}
    - target: {fileID: -8679921383154817045, guid: dc95bb58731b1284d8bd81c537400680,
        type: 3}
      propertyPath: m_LocalPosition.y
      value: 0
      objectReference: {fileID: 0}
    - target: {fileID: -8679921383154817045, guid: dc95bb58731b1284d8bd81c537400680,
        type: 3}
      propertyPath: m_LocalPosition.z
      value: 0
      objectReference: {fileID: 0}
    - target: {fileID: -8679921383154817045, guid: dc95bb58731b1284d8bd81c537400680,
        type: 3}
      propertyPath: m_LocalRotation.w
      value: -0.00000013767878
      objectReference: {fileID: 0}
    - target: {fileID: -8679921383154817045, guid: dc95bb58731b1284d8bd81c537400680,
        type: 3}
      propertyPath: m_LocalRotation.x
      value: 0.00000013767877
      objectReference: {fileID: 0}
    - target: {fileID: -8679921383154817045, guid: dc95bb58731b1284d8bd81c537400680,
        type: 3}
      propertyPath: m_LocalRotation.y
      value: 0.7071068
      objectReference: {fileID: 0}
    - target: {fileID: -8679921383154817045, guid: dc95bb58731b1284d8bd81c537400680,
        type: 3}
      propertyPath: m_LocalRotation.z
      value: 0.70710677
      objectReference: {fileID: 0}
    - target: {fileID: -8679921383154817045, guid: dc95bb58731b1284d8bd81c537400680,
        type: 3}
      propertyPath: m_LocalEulerAnglesHint.x
      value: 0
      objectReference: {fileID: 0}
    - target: {fileID: -8679921383154817045, guid: dc95bb58731b1284d8bd81c537400680,
        type: 3}
      propertyPath: m_LocalEulerAnglesHint.y
      value: 0
      objectReference: {fileID: 0}
    - target: {fileID: -8679921383154817045, guid: dc95bb58731b1284d8bd81c537400680,
        type: 3}
      propertyPath: m_LocalEulerAnglesHint.z
      value: 0
      objectReference: {fileID: 0}
    - target: {fileID: 919132149155446097, guid: dc95bb58731b1284d8bd81c537400680,
        type: 3}
      propertyPath: m_Name
      value: Crate_10 Variant
      objectReference: {fileID: 0}
    - target: {fileID: 919132149155446097, guid: dc95bb58731b1284d8bd81c537400680,
        type: 3}
      propertyPath: m_TagString
      value: Obstacle
      objectReference: {fileID: 0}
    m_RemovedComponents: []
  m_SourcePrefab: {fileID: 100100000, guid: dc95bb58731b1284d8bd81c537400680, type: 3}
--- !u!1 &6645054347011322692 stripped
GameObject:
  m_CorrespondingSourceObject: {fileID: 919132149155446097, guid: dc95bb58731b1284d8bd81c537400680,
    type: 3}
  m_PrefabInstance: {fileID: 5834009149541404181}
  m_PrefabAsset: {fileID: 0}
