%YAML 1.1
%TAG !u! tag:unity3d.com,2011:
--- !u!1001 &3623181946452474686
PrefabInstance:
  m_ObjectHideFlags: 0
  serializedVersion: 2
  m_Modification:
    m_TransformParent: {fileID: 0}
    m_Modifications:
    - target: {fileID: 100010, guid: 3897a3d91f2a971408ee9b44bacf3895, type: 3}
      propertyPath: m_Name
      value: vz05r_purple
      objectReference: {fileID: 0}
    - target: {fileID: 400010, guid: 3897a3d91f2a971408ee9b44bacf3895, type: 3}
      propertyPath: m_RootOrder
      value: 0
      objectReference: {fileID: 0}
    - target: {fileID: 400010, guid: 3897a3d91f2a971408ee9b44bacf3895, type: 3}
      propertyPath: m_LocalPosition.x
      value: -25.499077
      objectReference: {fileID: 0}
    - target: {fileID: 400010, guid: 3897a3d91f2a971408ee9b44bacf3895, type: 3}
      propertyPath: m_LocalPosition.y
      value: -3.6092458
      objectReference: {fileID: 0}
    - target: {fileID: 400010, guid: 3897a3d91f2a971408ee9b44bacf3895, type: 3}
      propertyPath: m_LocalPosition.z
      value: -22.37834
      objectReference: {fileID: 0}
    - target: {fileID: 400010, guid: 3897a3d91f2a971408ee9b44bacf3895, type: 3}
      propertyPath: m_LocalRotation.w
      value: 1
      objectReference: {fileID: 0}
    - target: {fileID: 400010, guid: 3897a3d91f2a971408ee9b44bacf3895, type: 3}
      propertyPath: m_LocalRotation.x
      value: 0
      objectReference: {fileID: 0}
    - target: {fileID: 400010, guid: 3897a3d91f2a971408ee9b44bacf3895, type: 3}
      propertyPath: m_LocalRotation.y
      value: 0
      objectReference: {fileID: 0}
    - target: {fileID: 400010, guid: 3897a3d91f2a971408ee9b44bacf3895, type: 3}
      propertyPath: m_LocalRotation.z
      value: 0
      objectReference: {fileID: 0}
    - target: {fileID: 400010, guid: 3897a3d91f2a971408ee9b44bacf3895, type: 3}
      propertyPath: m_LocalEulerAnglesHint.x
      value: 0
      objectReference: {fileID: 0}
    - target: {fileID: 400010, guid: 3897a3d91f2a971408ee9b44bacf3895, type: 3}
      propertyPath: m_LocalEulerAnglesHint.y
      value: 0
      objectReference: {fileID: 0}
    - target: {fileID: 400010, guid: 3897a3d91f2a971408ee9b44bacf3895, type: 3}
      propertyPath: m_LocalEulerAnglesHint.z
      value: 0
      objectReference: {fileID: 0}
    - target: {fileID: 2300000, guid: 3897a3d91f2a971408ee9b44bacf3895, type: 3}
      propertyPath: m_Materials.Array.data[0]
      value: 
      objectReference: {fileID: 2100000, guid: cf880c28d21663b46a699ca685023f0f, type: 2}
    m_RemovedComponents: []
  m_SourcePrefab: {fileID: 100100000, guid: 3897a3d91f2a971408ee9b44bacf3895, type: 3}
